C:\Intellij projects\amazon-testing\src\test\java\runners\MainRunner.java
C:\Intellij projects\amazon-testing\src\test\java\stepDefinitions\Search_Headphones_Steps.java
C:\Intellij projects\amazon-testing\src\test\java\stepDefinitions\base\Hooks.java
